0.00	[1.000000, 0.628319]	[-9.549296, 0.000000, 0.000000]
0.05	[1.000000, 0.628319]	[-9.544584, 0.049992, 0.062832]
0.10	[1.000000, 0.628319]	[-9.530453, 0.099934, 0.125664]
0.15	[1.000000, 0.628319]	[-9.506917, 0.149778, 0.188496]
0.20	[1.000000, 0.628319]	[-9.473998, 0.199474, 0.251327]
0.25	[1.000000, 0.628319]	[-9.431729, 0.248973, 0.314159]
0.30	[1.000000, 0.628319]	[-9.380152, 0.298227, 0.376991]
0.35	[1.000000, 0.628319]	[-9.319319, 0.347186, 0.439823]
0.40	[1.000000, 0.628319]	[-9.249288, 0.395802, 0.502655]
0.45	[1.000000, 0.628319]	[-9.170129, 0.444028, 0.565487]
0.50	[1.000000, 0.628319]	[-9.081920, 0.491816, 0.628319]
0.55	[1.000000, 0.628319]	[-8.984750, 0.539118, 0.691150]
0.60	[1.000000, 0.628319]	[-8.878711, 0.585889, 0.753982]
0.65	[1.000000, 0.628319]	[-8.763911, 0.632081, 0.816814]
0.70	[1.000000, 0.628319]	[-8.640462, 0.677649, 0.879646]
0.75	[1.000000, 0.628319]	[-8.508485, 0.722548, 0.942478]
0.80	[1.000000, 0.628319]	[-8.368112, 0.766735, 1.005310]
0.85	[1.000000, 0.628319]	[-8.219481, 0.810165, 1.068142]
0.90	[1.000000, 0.628319]	[-8.062737, 0.852795, 1.130974]
0.95	[1.000000, 0.628319]	[-7.898037, 0.894584, 1.193805]
1.00	[1.000000, 0.628319]	[-7.725543, 0.935489, 1.256637]
1.05	[1.000000, 0.628319]	[-7.545424, 0.975472, 1.319469]
1.10	[1.000000, 0.628319]	[-7.357859, 1.014492, 1.382301]
1.15	[1.000000, 0.628319]	[-7.163033, 1.052510, 1.445133]
1.20	[1.000000, 0.628319]	[-6.961138, 1.089491, 1.507964]
1.25	[1.000000, 0.628319]	[-6.752373, 1.125395, 1.570796]
1.30	[1.000000, 0.628319]	[-6.536944, 1.160190, 1.633628]
1.35	[1.000000, 0.628319]	[-6.315064, 1.193839, 1.696460]
1.40	[1.000000, 0.628319]	[-6.086952, 1.226310, 1.759292]
1.45	[1.000000, 0.628319]	[-5.852832, 1.257571, 1.822123]
1.50	[1.000000, 0.628319]	[-5.612937, 1.287590, 1.884955]
1.55	[1.000000, 0.628319]	[-5.367503, 1.316339, 1.947787]
1.60	[1.000000, 0.628319]	[-5.116771, 1.343789, 2.010619]
1.65	[1.000000, 0.628319]	[-4.860990, 1.369913, 2.073451]
1.70	[1.000000, 0.628319]	[-4.600412, 1.394685, 2.136282]
1.75	[1.000000, 0.628319]	[-4.335293, 1.418081, 2.199114]
1.80	[1.000000, 0.628319]	[-4.065896, 1.440077, 2.261946]
1.85	[1.000000, 0.628319]	[-3.792487, 1.460652, 2.324778]
1.90	[1.000000, 0.628319]	[-3.515335, 1.479785, 2.387609]
1.95	[1.000000, 0.628319]	[-3.234713, 1.497458, 2.450441]
2.00	[1.000000, 0.628319]	[-2.950900, 1.513653, 2.513273]
2.05	[1.000000, 0.628319]	[-2.664173, 1.528355, 2.576105]
2.10	[1.000000, 0.628319]	[-2.374818, 1.541548, 2.638937]
2.15	[1.000000, 0.628319]	[-2.083120, 1.553220, 2.701769]
2.20	[1.000000, 0.628319]	[-1.789365, 1.563359, 2.764600]
2.25	[1.000000, 0.628319]	[-1.493845, 1.571955, 2.827432]
2.30	[1.000000, 0.628319]	[-1.196850, 1.579000, 2.890264]
2.35	[1.000000, 0.628319]	[-0.898674, 1.584486, 2.953096]
2.40	[1.000000, 0.628319]	[-0.599612, 1.588409, 3.015928]
2.45	[1.000000, 0.628319]	[-0.299958, 1.590764, 3.078759]
2.50	[1.000000, 0.628319]	[-0.000007, 1.591549, 3.141591]
2.55	[1.000000, 0.628319]	[0.299943, 1.590764, 3.204423]
2.60	[1.000000, 0.628319]	[0.599598, 1.588409, 3.267255]
2.65	[1.000000, 0.628319]	[0.898660, 1.584486, 3.330086]
2.70	[1.000000, 0.628319]	[1.196836, 1.579000, 3.392918]
2.75	[1.000000, 0.628319]	[1.493831, 1.571955, 3.455750]
2.80	[1.000000, 0.628319]	[1.789351, 1.563359, 3.518582]
2.85	[1.000000, 0.628319]	[2.083106, 1.553220, 3.581414]
2.90	[1.000000, 0.628319]	[2.374804, 1.541548, 3.644245]
2.95	[1.000000, 0.628319]	[2.664159, 1.528355, 3.707077]
3.00	[1.000000, 0.628319]	[2.950885, 1.513654, 3.769909]
3.05	[1.000000, 0.628319]	[3.234699, 1.497459, 3.832741]
3.10	[1.000000, 0.628319]	[3.515321, 1.479786, 3.895573]
3.15	[1.000000, 0.628319]	[3.792473, 1.460653, 3.958405]
3.20	[1.000000, 0.628319]	[4.065883, 1.440078, 4.021236]
3.25	[1.000000, 0.628319]	[4.335280, 1.418082, 4.084068]
3.30	[1.000000, 0.628319]	[4.600398, 1.394686, 4.146900]
3.35	[1.000000, 0.628319]	[4.860977, 1.369915, 4.209732]
3.40	[1.000000, 0.628319]	[5.116759, 1.343791, 4.272563]
3.45	[1.000000, 0.628319]	[5.367490, 1.316341, 4.335395]
3.50	[1.000000, 0.628319]	[5.612925, 1.287592, 4.398227]
3.55	[1.000000, 0.628319]	[5.852821, 1.257572, 4.461059]
3.60	[1.000000, 0.628319]	[6.086940, 1.226311, 4.523890]
3.65	[1.000000, 0.628319]	[6.315053, 1.193840, 4.586722]
3.70	[1.000000, 0.628319]	[6.536933, 1.160191, 4.649554]
3.75	[1.000000, 0.628319]	[6.752363, 1.125397, 4.712386]
3.80	[1.000000, 0.628319]	[6.961128, 1.089492, 4.775218]
3.85	[1.000000, 0.628319]	[7.163023, 1.052512, 4.838049]
3.90	[1.000000, 0.628319]	[7.357850, 1.014494, 4.900881]
3.95	[1.000000, 0.628319]	[7.545415, 0.975474, 4.963713]
4.00	[1.000000, 0.628319]	[7.725534, 0.935491, 5.026545]
4.05	[1.000000, 0.628319]	[7.898028, 0.894586, 5.089377]
4.10	[1.000000, 0.628319]	[8.062729, 0.852797, 5.152209]
4.15	[1.000000, 0.628319]	[8.219473, 0.810167, 5.215041]
4.20	[1.000000, 0.628319]	[8.368106, 0.766737, 5.277873]
4.25	[1.000000, 0.628319]	[8.508481, 0.722550, 5.340705]
4.30	[1.000000, 0.628319]	[8.640458, 0.677650, 5.403537]
4.35	[1.000000, 0.628319]	[8.763908, 0.632082, 5.466369]
4.40	[1.000000, 0.628319]	[8.878709, 0.585890, 5.529202]
4.45	[1.000000, 0.628319]	[8.984747, 0.539119, 5.592033]
4.50	[1.000000, 0.628319]	[9.081919, 0.491817, 5.654866]
4.55	[1.000000, 0.628319]	[9.170128, 0.444029, 5.717698]
4.60	[1.000000, 0.628319]	[9.249287, 0.395803, 5.780530]
4.65	[1.000000, 0.628319]	[9.319318, 0.347186, 5.843362]
4.70	[1.000000, 0.628319]	[9.380152, 0.298227, 5.906194]
4.75	[1.000000, 0.628319]	[9.431729, 0.248973, 5.969026]
4.80	[1.000000, 0.628319]	[9.473998, 0.199474, 6.031858]
4.85	[1.000000, 0.628319]	[9.506917, 0.149778, 6.094690]
4.90	[1.000000, 0.628319]	[9.530454, 0.099934, 6.157522]
4.95	[1.000000, 0.628319]	[9.544585, 0.049991, 6.220355]
5.00	[1.000000, 0.628319]	[9.549296, -0.000001, 6.283186]
5.05	[1.000000, 0.628319]	[9.544584, -0.049993, 6.346019]
5.10	[1.000000, 0.628319]	[9.530453, -0.099936, 6.408851]
5.15	[1.000000, 0.628319]	[9.506915, -0.149780, 6.471683]
5.20	[1.000000, 0.628319]	[9.473997, -0.199476, 6.534515]
5.25	[1.000000, 0.628319]	[9.431727, -0.248975, 6.597347]
5.30	[1.000000, 0.628319]	[9.380150, -0.298229, 6.660179]
5.35	[1.000000, 0.628319]	[9.319316, -0.347188, 6.723011]
5.40	[1.000000, 0.628319]	[9.249284, -0.395805, 6.785843]
5.45	[1.000000, 0.628319]	[9.170125, -0.444031, 6.848675]
5.50	[1.000000, 0.628319]	[9.081916, -0.491819, 6.911508]
5.55	[1.000000, 0.628319]	[8.984744, -0.539121, 6.974339]
5.60	[1.000000, 0.628319]	[8.878704, -0.585891, 7.037172]
5.65	[1.000000, 0.628319]	[8.763903, -0.632084, 7.100004]
5.70	[1.000000, 0.628319]	[8.640452, -0.677652, 7.162836]
5.75	[1.000000, 0.628319]	[8.508476, -0.722552, 7.225668]
5.80	[1.000000, 0.628319]	[8.368101, -0.766738, 7.288500]
5.85	[1.000000, 0.628319]	[8.219468, -0.810168, 7.351332]
5.90	[1.000000, 0.628319]	[8.062724, -0.852799, 7.414164]
5.95	[1.000000, 0.628319]	[7.898023, -0.894587, 7.476996]
6.00	[1.000000, 0.628319]	[7.725526, -0.935493, 7.539828]
6.05	[1.000000, 0.628319]	[7.545407, -0.975476, 7.602661]
6.10	[1.000000, 0.628319]	[7.357840, -1.014496, 7.665493]
6.15	[1.000000, 0.628319]	[7.163012, -1.052515, 7.728324]
6.20	[1.000000, 0.628319]	[6.961115, -1.089495, 7.791157]
6.25	[1.000000, 0.628319]	[6.752348, -1.125399, 7.853989]
6.30	[1.000000, 0.628319]	[6.536917, -1.160194, 7.916821]
6.35	[1.000000, 0.628319]	[6.315036, -1.193843, 7.979653]
6.40	[1.000000, 0.628319]	[6.086921, -1.226314, 8.042485]
6.45	[1.000000, 0.628319]	[5.852800, -1.257575, 8.105317]
6.50	[1.000000, 0.628319]	[5.612903, -1.287594, 8.168149]
6.55	[1.000000, 0.628319]	[5.367467, -1.316343, 8.230982]
6.60	[1.000000, 0.628319]	[5.116733, -1.343793, 8.293814]
6.65	[1.000000, 0.628319]	[4.860950, -1.369917, 8.356646]
6.70	[1.000000, 0.628319]	[4.600370, -1.394689, 8.419477]
6.75	[1.000000, 0.628319]	[4.335249, -1.418084, 8.482309]
6.80	[1.000000, 0.628319]	[4.065851, -1.440080, 8.545142]
6.85	[1.000000, 0.628319]	[3.792439, -1.460655, 8.607974]
6.90	[1.000000, 0.628319]	[3.515285, -1.479788, 8.670806]
6.95	[1.000000, 0.628319]	[3.234661, -1.497461, 8.733638]
7.00	[1.000000, 0.628319]	[2.950846, -1.513656, 8.796471]
7.05	[1.000000, 0.628319]	[2.664118, -1.528357, 8.859303]
7.10	[1.000000, 0.628319]	[2.374761, -1.541550, 8.922134]
7.15	[1.000000, 0.628319]	[2.083061, -1.553222, 8.984966]
7.20	[1.000000, 0.628319]	[1.789305, -1.563360, 9.047798]
7.25	[1.000000, 0.628319]	[1.493783, -1.571956, 9.110631]
7.30	[1.000000, 0.628319]	[1.196786, -1.579001, 9.173463]
7.35	[1.000000, 0.628319]	[0.898609, -1.584487, 9.236295]
7.40	[1.000000, 0.628319]	[0.599545, -1.588410, 9.299127]
7.45	[1.000000, 0.628319]	[0.299889, -1.590764, 9.361959]
7.50	[1.000000, 0.628319]	[-0.000063, -1.591549, 9.424791]
7.55	[1.000000, 0.628319]	[-0.300015, -1.590764, 9.487623]
7.60	[1.000000, 0.628319]	[-0.599670, -1.588408, 9.550455]
7.65	[1.000000, 0.628319]	[-0.898734, -1.584485, 9.613287]
7.70	[1.000000, 0.628319]	[-1.196911, -1.578998, 9.676120]
7.75	[1.000000, 0.628319]	[-1.493907, -1.571953, 9.738952]
7.80	[1.000000, 0.628319]	[-1.789428, -1.563357, 9.801784]
7.85	[1.000000, 0.628319]	[-2.083184, -1.553217, 9.864615]
7.90	[1.000000, 0.628319]	[-2.374883, -1.541545, 9.927448]
7.95	[1.000000, 0.628319]	[-2.664239, -1.528351, 9.990280]
8.00	[1.000000, 0.628319]	[-2.950966, -1.513650, 10.053112]
8.05	[1.000000, 0.628319]	[-3.234780, -1.497454, 10.115944]
8.10	[1.000000, 0.628319]	[-3.515402, -1.479781, 10.178776]
8.15	[1.000000, 0.628319]	[-3.792555, -1.460647, 10.241609]
8.20	[1.000000, 0.628319]	[-4.065964, -1.440071, 10.304440]
8.25	[1.000000, 0.628319]	[-4.335361, -1.418075, 10.367272]
8.30	[1.000000, 0.628319]	[-4.600480, -1.394679, 10.430104]
8.35	[1.000000, 0.628319]	[-4.861058, -1.369907, 10.492937]
8.40	[1.000000, 0.628319]	[-5.116839, -1.343782, 10.555769]
8.45	[1.000000, 0.628319]	[-5.367571, -1.316332, 10.618601]
8.50	[1.000000, 0.628319]	[-5.613005, -1.287582, 10.681433]
8.55	[1.000000, 0.628319]	[-5.852900, -1.257562, 10.744265]
8.60	[1.000000, 0.628319]	[-6.087019, -1.226301, 10.807097]
8.65	[1.000000, 0.628319]	[-6.315130, -1.193829, 10.869929]
8.70	[1.000000, 0.628319]	[-6.537009, -1.160179, 10.932761]
8.75	[1.000000, 0.628319]	[-6.752437, -1.125385, 10.995593]
8.80	[1.000000, 0.628319]	[-6.961201, -1.089479, 11.058426]
8.85	[1.000000, 0.628319]	[-7.163095, -1.052499, 11.121258]
8.90	[1.000000, 0.628319]	[-7.357920, -1.014480, 11.184090]
8.95	[1.000000, 0.628319]	[-7.545483, -0.975459, 11.246922]
9.00	[1.000000, 0.628319]	[-7.725600, -0.935476, 11.309754]
9.05	[1.000000, 0.628319]	[-7.898093, -0.894570, 11.372586]
9.10	[1.000000, 0.628319]	[-8.062791, -0.852781, 11.435418]
9.15	[1.000000, 0.628319]	[-8.219532, -0.810150, 11.498250]
9.20	[1.000000, 0.628319]	[-8.368161, -0.766720, 11.561082]
9.25	[1.000000, 0.628319]	[-8.508532, -0.722533, 11.623915]
9.30	[1.000000, 0.628319]	[-8.640506, -0.677633, 11.686747]
9.35	[1.000000, 0.628319]	[-8.763953, -0.632064, 11.749578]
9.40	[1.000000, 0.628319]	[-8.878750, -0.585872, 11.812410]
9.45	[1.000000, 0.628319]	[-8.984786, -0.539101, 11.875243]
9.50	[1.000000, 0.628319]	[-9.081954, -0.491799, 11.938075]
9.55	[1.000000, 0.628319]	[-9.170160, -0.444011, 12.000907]
9.60	[1.000000, 0.628319]	[-9.249315, -0.395784, 12.063739]
9.65	[1.000000, 0.628319]	[-9.319343, -0.347168, 12.126571]
9.70	[1.000000, 0.628319]	[-9.380173, -0.298208, 12.189404]
9.75	[1.000000, 0.628319]	[-9.431747, -0.248954, 12.252235]
9.80	[1.000000, 0.628319]	[-9.474012, -0.199455, 12.315067]
9.85	[1.000000, 0.628319]	[-9.506927, -0.149759, 12.377899]
9.90	[1.000000, 0.628319]	[-9.530461, -0.099915, 12.440732]
9.95	[1.000000, 0.628319]	[-9.544589, -0.049972, 12.503564]
10.00	[1.000000, -0.628319]	[9.549296, 0.000020, -12.566396]
10.05	[1.000000, -0.628319]	[9.544581, 0.050012, -12.629228]
10.10	[1.000000, -0.628319]	[9.530446, 0.099955, -12.692060]
10.15	[1.000000, -0.628319]	[9.506905, 0.149799, -12.754892]
10.20	[1.000000, -0.628319]	[9.473982, 0.199495, -12.817724]
10.25	[1.000000, -0.628319]	[9.431709, 0.248994, -12.880556]
10.30	[1.000000, -0.628319]	[9.380128, 0.298247, -12.943388]
10.35	[1.000000, -0.628319]	[9.319291, 0.347207, -13.006221]
10.40	[1.000000, -0.628319]	[9.249256, 0.395823, -13.069053]
10.45	[1.000000, -0.628319]	[9.170093, 0.444049, -13.131885]
10.50	[1.000000, -0.628319]	[9.081880, 0.491837, -13.194716]
10.55	[1.000000, -0.628319]	[8.984704, 0.539139, -13.257548]
10.60	[1.000000, -0.628319]	[8.878662, 0.585909, -13.320381]
10.65	[1.000000, -0.628319]	[8.763857, 0.632101, -13.383213]
10.70	[1.000000, -0.628319]	[8.640404, 0.677669, -13.446045]
10.75	[1.000000, -0.628319]	[8.508424, 0.722569, -13.508877]
10.80	[1.000000, -0.628319]	[8.368046, 0.766755, -13.571710]
10.85	[1.000000, -0.628319]	[8.219410, 0.810185, -13.634542]
10.90	[1.000000, -0.628319]	[8.062662, 0.852815, -13.697373]
10.95	[1.000000, -0.628319]	[7.897958, 0.894603, -13.760205]
11.00	[1.000000, -0.628319]	[7.725459, 0.935509, -13.823037]
11.05	[1.000000, -0.628319]	[7.545336, 0.975491, -13.885870]
11.10	[1.000000, -0.628319]	[7.357767, 1.014510, -13.948702]
11.15	[1.000000, -0.628319]	[7.162937, 1.052529, -14.011534]
11.20	[1.000000, -0.628319]	[6.961037, 1.089509, -14.074366]
11.25	[1.000000, -0.628319]	[6.752267, 1.125413, -14.137198]
11.30	[1.000000, -0.628319]	[6.536834, 1.160207, -14.200030]
11.35	[1.000000, -0.628319]	[6.314950, 1.193856, -14.262862]
11.40	[1.000000, -0.628319]	[6.086833, 1.226326, -14.325694]
11.45	[1.000000, -0.628319]	[5.852710, 1.257586, -14.388527]
11.50	[1.000000, -0.628319]	[5.612811, 1.287606, -14.451359]
11.55	[1.000000, -0.628319]	[5.367372, 1.316354, -14.514191]
11.60	[1.000000, -0.628319]	[5.116637, 1.343804, -14.577023]
11.65	[1.000000, -0.628319]	[4.860852, 1.369927, -14.639854]
11.70	[1.000000, -0.628319]	[4.600270, 1.394698, -14.702687]
11.75	[1.000000, -0.628319]	[4.335147, 1.418093, -14.765519]
11.80	[1.000000, -0.628319]	[4.065747, 1.440088, -14.828351]
11.85	[1.000000, -0.628319]	[3.792334, 1.460663, -14.891183]
11.90	[1.000000, -0.628319]	[3.515178, 1.479795, -14.954016]
11.95	[1.000000, -0.628319]	[3.234554, 1.497468, -15.016848]
12.00	[1.000000, -0.628319]	[2.950737, 1.513662, -15.079679]
12.05	[1.000000, -0.628319]	[2.664008, 1.528363, -15.142511]
12.10	[1.000000, -0.628319]	[2.374651, 1.541555, -15.205343]
12.15	[1.000000, -0.628319]	[2.082949, 1.553226, -15.268176]
12.20	[1.000000, -0.628319]	[1.789192, 1.563364, -15.331008]
12.25	[1.000000, -0.628319]	[1.493670, 1.571959, -15.393840]
12.30	[1.000000, -0.628319]	[1.196673, 1.579003, -15.456672]
12.35	[1.000000, -0.628319]	[0.898495, 1.584489, -15.519505]
12.40	[1.000000, -0.628319]	[0.599431, 1.588411, -15.582336]
12.45	[1.000000, -0.628319]	[0.299775, 1.590765, -15.645168]
12.50	[1.000000, -0.628319]	[-0.000177, 1.591549, -15.708000]
12.55	[1.000000, -0.628319]	[-0.300129, 1.590763, -15.770832]
12.60	[1.000000, -0.628319]	[-0.599785, 1.588407, -15.833665]
12.65	[1.000000, -0.628319]	[-0.898848, 1.584483, -15.896497]
12.70	[1.000000, -0.628319]	[-1.197025, 1.578996, -15.959329]
12.75	[1.000000, -0.628319]	[-1.494020, 1.571950, -16.022161]
12.80	[1.000000, -0.628319]	[-1.789541, 1.563353, -16.084993]
12.85	[1.000000, -0.628319]	[-2.083295, 1.553213, -16.147825]
12.90	[1.000000, -0.628319]	[-2.374994, 1.541540, -16.210657]
12.95	[1.000000, -0.628319]	[-2.664349, 1.528346, -16.273489]
13.00	[1.000000, -0.628319]	[-2.951074, 1.513644, -16.336321]
13.05	[1.000000, -0.628319]	[-3.234887, 1.497447, -16.399153]
13.10	[1.000000, -0.628319]	[-3.515508, 1.479774, -16.461985]
13.15	[1.000000, -0.628319]	[-3.792659, 1.460639, -16.524818]
13.20	[1.000000, -0.628319]	[-4.066068, 1.440063, -16.587650]
13.25	[1.000000, -0.628319]	[-4.335463, 1.418066, -16.650482]
13.30	[1.000000, -0.628319]	[-4.600580, 1.394670, -16.713314]
13.35	[1.000000, -0.628319]	[-4.861157, 1.369897, -16.776146]
13.40	[1.000000, -0.628319]	[-5.116936, 1.343772, -16.838978]
13.45	[1.000000, -0.628319]	[-5.367666, 1.316321, -16.901810]
13.50	[1.000000, -0.628319]	[-5.613098, 1.287571, -16.964642]
13.55	[1.000000, -0.628319]	[-5.852990, 1.257550, -17.027473]
13.60	[1.000000, -0.628319]	[-6.087107, 1.226288, -17.090307]
13.65	[1.000000, -0.628319]	[-6.315216, 1.193816, -17.153139]
13.70	[1.000000, -0.628319]	[-6.537093, 1.160166, -17.215971]
13.75	[1.000000, -0.628319]	[-6.752518, 1.125371, -17.278803]
13.80	[1.000000, -0.628319]	[-6.961280, 1.089465, -17.341635]
13.85	[1.000000, -0.628319]	[-7.163171, 1.052485, -17.404467]
13.90	[1.000000, -0.628319]	[-7.357993, 1.014465, -17.467299]
13.95	[1.000000, -0.628319]	[-7.545554, 0.975444, -17.530130]
14.00	[1.000000, -0.628319]	[-7.725667, 0.935461, -17.592962]
14.05	[1.000000, -0.628319]	[-7.898157, 0.894554, -17.655796]
14.10	[1.000000, -0.628319]	[-8.062853, 0.852765, -17.718628]
14.15	[1.000000, -0.628319]	[-8.219590, 0.810134, -17.781460]
14.20	[1.000000, -0.628319]	[-8.368217, 0.766703, -17.844292]
14.25	[1.000000, -0.628319]	[-8.508584, 0.722516, -17.907124]
14.30	[1.000000, -0.628319]	[-8.640555, 0.677616, -17.969955]
14.35	[1.000000, -0.628319]	[-8.763999, 0.632047, -18.032787]
14.40	[1.000000, -0.628319]	[-8.878793, 0.585854, -18.095619]
14.45	[1.000000, -0.628319]	[-8.984825, 0.539083, -18.158451]
14.50	[1.000000, -0.628319]	[-9.081990, 0.491780, -18.221285]
14.55	[1.000000, -0.628319]	[-9.170191, 0.443992, -18.284117]
14.60	[1.000000, -0.628319]	[-9.249344, 0.395766, -18.346949]
14.65	[1.000000, -0.628319]	[-9.319368, 0.347149, -18.409781]
14.70	[1.000000, -0.628319]	[-9.380195, 0.298189, -18.472612]
14.75	[1.000000, -0.628319]	[-9.431765, 0.248936, -18.535444]
14.80	[1.000000, -0.628319]	[-9.474026, 0.199436, -18.598276]
14.85	[1.000000, -0.628319]	[-9.506938, 0.149740, -18.661108]
14.90	[1.000000, -0.628319]	[-9.530468, 0.099896, -18.723942]
14.95	[1.000000, -0.628319]	[-9.544592, 0.049953, -18.786774]
15.00	[1.000000, -0.628319]	[-9.549296, -0.000039, -18.849606]
15.05	[1.000000, -0.628319]	[-9.544577, -0.050031, -18.912437]
15.10	[1.000000, -0.628319]	[-9.530439, -0.099974, -18.975269]
15.15	[1.000000, -0.628319]	[-9.506894, -0.149818, -19.038101]
15.20	[1.000000, -0.628319]	[-9.473968, -0.199514, -19.100933]
15.25	[1.000000, -0.628319]	[-9.431691, -0.249013, -19.163765]
15.30	[1.000000, -0.628319]	[-9.380107, -0.298266, -19.226597]
15.35	[1.000000, -0.628319]	[-9.319266, -0.347225, -19.289431]
15.40	[1.000000, -0.628319]	[-9.249227, -0.395842, -19.352262]
15.45	[1.000000, -0.628319]	[-9.170060, -0.444067, -19.415094]
15.50	[1.000000, -0.628319]	[-9.081845, -0.491855, -19.477926]
15.55	[1.000000, -0.628319]	[-8.984666, -0.539157, -19.540758]
15.60	[1.000000, -0.628319]	[-8.878621, -0.585927, -19.603590]
15.65	[1.000000, -0.628319]	[-8.763812, -0.632119, -19.666422]
15.70	[1.000000, -0.628319]	[-8.640355, -0.677687, -19.729254]
15.75	[1.000000, -0.628319]	[-8.508371, -0.722586, -19.792086]
15.80	[1.000000, -0.628319]	[-8.367991, -0.766772, -19.854919]
15.85	[1.000000, -0.628319]	[-8.219352, -0.810201, -19.917751]
15.90	[1.000000, -0.628319]	[-8.062601, -0.852831, -19.980583]
15.95	[1.000000, -0.628319]	[-7.897894, -0.894619, -20.043415]
16.00	[1.000000, -0.628319]	[-7.725395, -0.935523, -20.106245]
16.05	[1.000000, -0.628319]	[-7.545273, -0.975504, -20.169077]
16.10	[1.000000, -0.628319]	[-7.357705, -1.014523, -20.231907]
16.15	[1.000000, -0.628319]	[-7.162875, -1.052540, -20.294739]
16.20	[1.000000, -0.628319]	[-6.960978, -1.089519, -20.357569]
16.25	[1.000000, -0.628319]	[-6.752211, -1.125422, -20.420401]
16.30	[1.000000, -0.628319]	[-6.536780, -1.160215, -20.483231]
16.35	[1.000000, -0.628319]	[-6.314898, -1.193863, -20.546062]
16.40	[1.000000, -0.628319]	[-6.086785, -1.226333, -20.608892]
16.45	[1.000000, -0.628319]	[-5.852665, -1.257592, -20.671724]
16.50	[1.000000, -0.628319]	[-5.612769, -1.287611, -20.734554]
16.55	[1.000000, -0.628319]	[-5.367335, -1.316358, -20.797386]
16.60	[1.000000, -0.628319]	[-5.116603, -1.343807, -20.860216]
16.65	[1.000000, -0.628319]	[-4.860822, -1.369930, -20.923048]
16.70	[1.000000, -0.628319]	[-4.600245, -1.394700, -20.985878]
16.75	[1.000000, -0.628319]	[-4.335127, -1.418095, -21.048710]
16.80	[1.000000, -0.628319]	[-4.065731, -1.440090, -21.111540]
16.85	[1.000000, -0.628319]	[-3.792323, -1.460663, -21.174372]
16.90	[1.000000, -0.628319]	[-3.515173, -1.479796, -21.237202]
16.95	[1.000000, -0.628319]	[-3.234554, -1.497468, -21.300034]
17.00	[1.000000, -0.628319]	[-2.950743, -1.513662, -21.362864]
17.05	[1.000000, -0.628319]	[-2.664019, -1.528362, -21.425695]
17.10	[1.000000, -0.628319]	[-2.374667, -1.541554, -21.488525]
17.15	[1.000000, -0.628319]	[-2.082972, -1.553225, -21.551355]
17.20	[1.000000, -0.628319]	[-1.789221, -1.563363, -21.614187]
17.25	[1.000000, -0.628319]	[-1.493704, -1.571958, -21.677017]
17.30	[1.000000, -0.628319]	[-1.196713, -1.579002, -21.739849]
17.35	[1.000000, -0.628319]	[-0.898541, -1.584488, -21.802679]
17.40	[1.000000, -0.628319]	[-0.599482, -1.588410, -21.865511]
17.45	[1.000000, -0.628319]	[-0.299832, -1.590765, -21.928341]
17.50	[1.000000, -0.628319]	[0.000114, -1.591549, -21.991173]
17.55	[1.000000, -0.628319]	[0.300060, -1.590764, -22.054003]
17.60	[1.000000, -0.628319]	[0.599710, -1.588408, -22.116835]
17.65	[1.000000, -0.628319]	[0.898768, -1.584484, -22.179665]
17.70	[1.000000, -0.628319]	[1.196939, -1.578998, -22.242496]
17.75	[1.000000, -0.628319]	[1.493929, -1.571952, -22.305326]
17.80	[1.000000, -0.628319]	[1.789445, -1.563356, -22.368158]
17.85	[1.000000, -0.628319]	[2.083195, -1.553217, -22.430988]
17.90	[1.000000, -0.628319]	[2.374889, -1.541545, -22.493820]
17.95	[1.000000, -0.628319]	[2.664239, -1.528351, -22.556650]
18.00	[1.000000, -0.628319]	[2.950960, -1.513650, -22.619482]
18.05	[1.000000, -0.628319]	[3.234769, -1.497455, -22.682312]
18.10	[1.000000, -0.628319]	[3.515386, -1.479782, -22.745144]
18.15	[1.000000, -0.628319]	[3.792533, -1.460648, -22.807974]
18.20	[1.000000, -0.628319]	[4.065938, -1.440073, -22.870806]
18.25	[1.000000, -0.628319]	[4.335331, -1.418077, -22.933636]
18.30	[1.000000, -0.628319]	[4.600445, -1.394682, -22.996468]
18.35	[1.000000, -0.628319]	[4.861019, -1.369910, -23.059298]
18.40	[1.000000, -0.628319]	[5.116796, -1.343787, -23.122129]
18.45	[1.000000, -0.628319]	[5.367524, -1.316337, -23.184959]
18.50	[1.000000, -0.628319]	[5.612954, -1.287588, -23.247791]
18.55	[1.000000, -0.628319]	[5.852846, -1.257569, -23.310621]
18.60	[1.000000, -0.628319]	[6.086961, -1.226308, -23.373453]
18.65	[1.000000, -0.628319]	[6.315070, -1.193838, -23.436283]
18.70	[1.000000, -0.628319]	[6.536947, -1.160189, -23.499113]
18.75	[1.000000, -0.628319]	[6.752372, -1.125395, -23.561945]
18.80	[1.000000, -0.628319]	[6.961134, -1.089491, -23.624775]
18.85	[1.000000, -0.628319]	[7.163028, -1.052512, -23.687607]
18.90	[1.000000, -0.628319]	[7.357851, -1.014494, -23.750437]
18.95	[1.000000, -0.628319]	[7.545413, -0.975474, -23.813269]
19.00	[1.000000, -0.628319]	[7.725529, -0.935492, -23.876099]
19.05	[1.000000, -0.628319]	[7.898022, -0.894587, -23.938931]
19.10	[1.000000, -0.628319]	[8.062720, -0.852799, -24.001760]
19.15	[1.000000, -0.628319]	[8.219462, -0.810170, -24.064592]
19.20	[1.000000, -0.628319]	[8.368092, -0.766741, -24.127422]
19.25	[1.000000, -0.628319]	[8.508465, -0.722555, -24.190254]
19.30	[1.000000, -0.628319]	[8.640440, -0.677656, -24.253084]
19.35	[1.000000, -0.628319]	[8.763889, -0.632089, -24.315916]
19.40	[1.000000, -0.628319]	[8.878690, -0.585898, -24.378746]
19.45	[1.000000, -0.628319]	[8.984728, -0.539128, -24.441578]
19.50	[1.000000, -0.628319]	[9.081900, -0.491827, -24.504408]
19.55	[1.000000, -0.628319]	[9.170108, -0.444040, -24.567240]
19.60	[1.000000, -0.628319]	[9.249269, -0.395815, -24.630070]
19.65	[1.000000, -0.628319]	[9.319301, -0.347199, -24.692902]
19.70	[1.000000, -0.628319]	[9.380136, -0.298241, -24.755732]
19.75	[1.000000, -0.628319]	[9.431715, -0.248988, -24.818563]
19.80	[1.000000, -0.628319]	[9.473986, -0.199490, -24.881393]
19.85	[1.000000, -0.628319]	[9.506907, -0.149795, -24.944225]
19.90	[1.000000, -0.628319]	[9.530446, -0.099952, -25.007055]
19.95	[1.000000, -0.628319]	[9.544581, -0.050010, -25.069887]
20.00	[1.000000, -0.628319]	[9.549296, -0.000019, -25.132717]
